lab2/simulation/qsim/lab2.msim.vcd
$comment
	File created using the following command:
		vcd file lab2.msim.vcd -direction
$end
$date
	Wed Jan 31 10:07:12 2018
$end
$version
	ModelSim Version 10.1e
$end
$timescale
	1ps
$end
$scope module pc_vlg_vec_tst $end
$var reg 1 ! clk $end
$var reg 1 " clr $end
$var reg 32 # d [31:0] $end
$var reg 1 $ inc $end
$var reg 1 % ld $end
$var reg 32 & treg_q [31:0] $end
$var wire 1 ' q [31] $end
$var wire 1 ( q [30] $end
$var wire 1 ) q [29] $end
$var wire 1 * q [28] $end
$var wire 1 + q [27] $end
$var wire 1 , q [26] $end
$var wire 1 - q [25] $end
$var wire 1 . q [24] $end
$var wire 1 / q [23] $end
$var wire 1 0 q [22] $end
$var wire 1 1 q [21] $end
$var wire 1 2 q [20] $end
$var wire 1 3 q [19] $end
$var wire 1 4 q [18] $end
$var wire 1 5 q [17] $end
$var wire 1 6 q [16] $end
$var wire 1 7 q [15] $end
$var wire 1 8 q [14] $end
$var wire 1 9 q [13] $end
$var wire 1 : q [12] $end
$var wire 1 ; q [11] $end
$var wire 1 < q [10] $end
$var wire 1 = q [9] $end
$var wire 1 > q [8] $end
$var wire 1 ? q [7] $end
$var wire 1 @ q [6] $end
$var wire 1 A q [5] $end
$var wire 1 B q [4] $end
$var wire 1 C q [3] $end
$var wire 1 D q [2] $end
$var wire 1 E q [1] $end
$var wire 1 F q [0] $end
$var wire 1 G sampler $end
$scope module i1 $end
$var wire 1 H gnd $end
$var wire 1 I vcc $end
$var wire 1 J unknown $end
$var tri1 1 K devclrn $end
$var tri1 1 L devpor $end
$var tri1 1 M devoe $end
$var wire 1 N q[0]~input_o $end
$var wire 1 O q[1]~input_o $end
$var wire 1 P q[2]~input_o $end
$var wire 1 Q q[3]~input_o $end
$var wire 1 R q[4]~input_o $end
$var wire 1 S q[5]~input_o $end
$var wire 1 T q[6]~input_o $end
$var wire 1 U q[7]~input_o $end
$var wire 1 V q[8]~input_o $end
$var wire 1 W q[9]~input_o $end
$var wire 1 X q[10]~input_o $end
$var wire 1 Y q[11]~input_o $end
$var wire 1 Z q[12]~input_o $end
$var wire 1 [ q[13]~input_o $end
$var wire 1 \ q[14]~input_o $end
$var wire 1 ] q[15]~input_o $end
$var wire 1 ^ q[16]~input_o $end
$var wire 1 _ q[17]~input_o $end
$var wire 1 ` q[18]~input_o $end
$var wire 1 a q[19]~input_o $end
$var wire 1 b q[20]~input_o $end
$var wire 1 c q[21]~input_o $end
$var wire 1 d q[22]~input_o $end
$var wire 1 e q[23]~input_o $end
$var wire 1 f q[24]~input_o $end
$var wire 1 g q[25]~input_o $end
$var wire 1 h q[26]~input_o $end
$var wire 1 i q[27]~input_o $end
$var wire 1 j q[28]~input_o $end
$var wire 1 k q[29]~input_o $end
$var wire 1 l q[30]~input_o $end
$var wire 1 m q[31]~input_o $end
$var wire 1 n q[0]~output_o $end
$var wire 1 o q[1]~output_o $end
$var wire 1 p q[2]~output_o $end
$var wire 1 q q[3]~output_o $end
$var wire 1 r q[4]~output_o $end
$var wire 1 s q[5]~output_o $end
$var wire 1 t q[6]~output_o $end
$var wire 1 u q[7]~output_o $end
$var wire 1 v q[8]~output_o $end
$var wire 1 w q[9]~output_o $end
$var wire 1 x q[10]~output_o $end
$var wire 1 y q[11]~output_o $end
$var wire 1 z q[12]~output_o $end
$var wire 1 { q[13]~output_o $end
$var wire 1 | q[14]~output_o $end
$var wire 1 } q[15]~output_o $end
$var wire 1 ~ q[16]~output_o $end
$var wire 1 !! q[17]~output_o $end
$var wire 1 "! q[18]~output_o $end
$var wire 1 #! q[19]~output_o $end
$var wire 1 $! q[20]~output_o $end
$var wire 1 %! q[21]~output_o $end
$var wire 1 &! q[22]~output_o $end
$var wire 1 '! q[23]~output_o $end
$var wire 1 (! q[24]~output_o $end
$var wire 1 )! q[25]~output_o $end
$var wire 1 *! q[26]~output_o $end
$var wire 1 +! q[27]~output_o $end
$var wire 1 ,! q[28]~output_o $end
$var wire 1 -! q[29]~output_o $end
$var wire 1 .! q[30]~output_o $end
$var wire 1 /! q[31]~output_o $end
$var wire 1 0! clk~input_o $end
$var wire 1 1! clk~inputclkctrl_outclk $end
$var wire 1 2! ld~input_o $end
$var wire 1 3! inc~input_o $end
$var wire 1 4! d[0]~input_o $end
$var wire 1 5! q~94_combout $end
$var wire 1 6! clr~input_o $end
$var wire 1 7! clr~inputclkctrl_outclk $end
$var wire 1 8! q[0]~reg0_q $end
$var wire 1 9! d[1]~input_o $end
$var wire 1 :! q~95_combout $end
$var wire 1 ;! q[1]~reg0_q $end
$var wire 1 <! q[2]~96_combout $end
$var wire 1 =! d[2]~input_o $end
$var wire 1 >! q~98_combout $end
$var wire 1 ?! q[2]~reg0_q $end
$var wire 1 @! q[2]~97 $end
$var wire 1 A! q[3]~99_combout $end
$var wire 1 B! d[3]~input_o $end
$var wire 1 C! q~101_combout $end
$var wire 1 D! q[3]~reg0_q $end
$var wire 1 E! q[3]~100 $end
$var wire 1 F! q[4]~102_combout $end
$var wire 1 G! d[4]~input_o $end
$var wire 1 H! q~104_combout $end
$var wire 1 I! q[4]~reg0_q $end
$var wire 1 J! q[4]~103 $end
$var wire 1 K! q[5]~105_combout $end
$var wire 1 L! d[5]~input_o $end
$var wire 1 M! q~107_combout $end
$var wire 1 N! q[5]~reg0_q $end
$var wire 1 O! q[5]~106 $end
$var wire 1 P! q[6]~108_combout $end
$var wire 1 Q! d[6]~input_o $end
$var wire 1 R! q~110_combout $end
$var wire 1 S! q[6]~reg0_q $end
$var wire 1 T! q[6]~109 $end
$var wire 1 U! q[7]~111_combout $end
$var wire 1 V! d[7]~input_o $end
$var wire 1 W! q~113_combout $end
$var wire 1 X! q[7]~reg0_q $end
$var wire 1 Y! q[7]~112 $end
$var wire 1 Z! q[8]~114_combout $end
$var wire 1 [! d[8]~input_o $end
$var wire 1 \! q~116_combout $end
$var wire 1 ]! q[8]~reg0_q $end
$var wire 1 ^! q[8]~115 $end
$var wire 1 _! q[9]~117_combout $end
$var wire 1 `! d[9]~input_o $end
$var wire 1 a! q~119_combout $end
$var wire 1 b! q[9]~reg0_q $end
$var wire 1 c! q[9]~118 $end
$var wire 1 d! q[10]~120_combout $end
$var wire 1 e! d[10]~input_o $end
$var wire 1 f! q~122_combout $end
$var wire 1 g! q[10]~reg0_q $end
$var wire 1 h! q[10]~121 $end
$var wire 1 i! q[11]~123_combout $end
$var wire 1 j! d[11]~input_o $end
$var wire 1 k! q~125_combout $end
$var wire 1 l! q[11]~reg0_q $end
$var wire 1 m! q[11]~124 $end
$var wire 1 n! q[12]~126_combout $end
$var wire 1 o! d[12]~input_o $end
$var wire 1 p! q~128_combout $end
$var wire 1 q! q[12]~reg0_q $end
$var wire 1 r! q[12]~127 $end
$var wire 1 s! q[13]~129_combout $end
$var wire 1 t! d[13]~input_o $end
$var wire 1 u! q~131_combout $end
$var wire 1 v! q[13]~reg0_q $end
$var wire 1 w! q[13]~130 $end
$var wire 1 x! q[14]~132_combout $end
$var wire 1 y! d[14]~input_o $end
$var wire 1 z! q~134_combout $end
$var wire 1 {! q[14]~reg0_q $end
$var wire 1 |! q[14]~133 $end
$var wire 1 }! q[15]~135_combout $end
$var wire 1 ~! d[15]~input_o $end
$var wire 1 !" q~137_combout $end
$var wire 1 "" q[15]~reg0_q $end
$var wire 1 #" q[15]~136 $end
$var wire 1 $" q[16]~138_combout $end
$var wire 1 %" d[16]~input_o $end
$var wire 1 &" q~140_combout $end
$var wire 1 '" q[16]~reg0_q $end
$var wire 1 (" q[16]~139 $end
$var wire 1 )" q[17]~141_combout $end
$var wire 1 *" d[17]~input_o $end
$var wire 1 +" q~143_combout $end
$var wire 1 ," q[17]~reg0_q $end
$var wire 1 -" q[17]~142 $end
$var wire 1 ." q[18]~144_combout $end
$var wire 1 /" d[18]~input_o $end
$var wire 1 0" q~146_combout $end
$var wire 1 1" q[18]~reg0_q $end
$var wire 1 2" q[18]~145 $end
$var wire 1 3" q[19]~147_combout $end
$var wire 1 4" d[19]~input_o $end
$var wire 1 5" q~149_combout $end
$var wire 1 6" q[19]~reg0_q $end
$var wire 1 7" q[19]~148 $end
$var wire 1 8" q[20]~150_combout $end
$var wire 1 9" d[20]~input_o $end
$var wire 1 :" q~152_combout $end
$var wire 1 ;" q[20]~reg0_q $end
$var wire 1 <" q[20]~151 $end
$var wire 1 =" q[21]~153_combout $end
$var wire 1 >" d[21]~input_o $end
$var wire 1 ?" q~155_combout $end
$var wire 1 @" q[21]~reg0_q $end
$var wire 1 A" q[21]~154 $end
$var wire 1 B" q[22]~156_combout $end
$var wire 1 C" d[22]~input_o $end
$var wire 1 D" q~158_combout $end
$var wire 1 E" q[22]~reg0_q $end
$var wire 1 F" q[22]~157 $end
$var wire 1 G" q[23]~159_combout $end
$var wire 1 H" d[23]~input_o $end
$var wire 1 I" q~161_combout $end
$var wire 1 J" q[23]~reg0_q $end
$var wire 1 K" q[23]~160 $end
$var wire 1 L" q[24]~162_combout $end
$var wire 1 M" d[24]~input_o $end
$var wire 1 N" q~164_combout $end
$var wire 1 O" q[24]~reg0_q $end
$var wire 1 P" q[24]~163 $end
$var wire 1 Q" q[25]~165_combout $end
$var wire 1 R" d[25]~input_o $end
$var wire 1 S" q~167_combout $end
$var wire 1 T" q[25]~reg0_q $end
$var wire 1 U" q[25]~166 $end
$var wire 1 V" q[26]~168_combout $end
$var wire 1 W" d[26]~input_o $end
$var wire 1 X" q~170_combout $end
$var wire 1 Y" q[26]~reg0_q $end
$var wire 1 Z" q[26]~169 $end
$var wire 1 [" q[27]~171_combout $end
$var wire 1 \" d[27]~input_o $end
$var wire 1 ]" q~173_combout $end
$var wire 1 ^" q[27]~reg0_q $end
$var wire 1 _" q[27]~172 $end
$var wire 1 `" q[28]~174_combout $end
$var wire 1 a" d[28]~input_o $end
$var wire 1 b" q~176_combout $end
$var wire 1 c" q[28]~reg0_q $end
$var wire 1 d" q[28]~175 $end
$var wire 1 e" q[29]~177_combout $end
$var wire 1 f" d[29]~input_o $end
$var wire 1 g" q~179_combout $end
$var wire 1 h" q[29]~reg0_q $end
$var wire 1 i" q[29]~178 $end
$var wire 1 j" q[30]~180_combout $end
$var wire 1 k" d[30]~input_o $end
$var wire 1 l" q~182_combout $end
$var wire 1 m" q[30]~reg0_q $end
$var wire 1 n" q[30]~181 $end
$var wire 1 o" q[31]~183_combout $end
$var wire 1 p" d[31]~input_o $end
$var wire 1 q" q~185_combout $end
$var wire 1 r" q[31]~reg0_q $end
$upscope $end
$upscope $end
$enddefinitions $end
#0
$dumpvars
0!
0"
b11111010110100001010110110100000 #
0$
1%
bz &
0F
0E
0D
0C
0B
0A
0@
0?
0>
0=
0<
0;
0:
09
08
07
06
05
04
03
02
01
00
0/
0.
0-
0,
0+
0*
0)
0(
0'
xG
0H
1I
xJ
1K
1L
1M
0N
0O
0P
0Q
0R
0S
0T
0U
0V
0W
0X
0Y
0Z
0[
0\
0]
0^
0_
0`
0a
0b
0c
0d
0e
0f
0g
0h
0i
0j
0k
0l
0m
0n
0o
0p
0q
0r
0s
0t
0u
0v
0w
0x
0y
0z
0{
0|
0}
0~
0!!
0"!
0#!
0$!
0%!
0&!
0'!
0(!
0)!
0*!
0+!
0,!
0-!
0.!
0/!
00!
01!
12!
03!
04!
05!
06!
07!
08!
09!
0:!
0;!
1<!
0=!
0>!
0?!
0@!
0A!
0B!
0C!
0D!
1E!
0F!
0G!
0H!
0I!
0J!
0K!
1L!
1M!
0N!
1O!
0P!
0Q!
0R!
0S!
0T!
0U!
1V!
1W!
0X!
1Y!
0Z!
1[!
1\!
0]!
0^!
0_!
0`!
0a!
0b!
1c!
0d!
1e!
1f!
0g!
0h!
0i!
1j!
1k!
0l!
1m!
0n!
0o!
0p!
0q!
0r!
0s!
1t!
1u!
0v!
1w!
0x!
0y!
0z!
0{!
0|!
0}!
1~!
1!"
0""
1#"
0$"
0%"
0&"
0'"
0("
0)"
0*"
0+"
0,"
1-"
0."
0/"
00"
01"
02"
03"
04"
05"
06"
17"
08"
19"
1:"
0;"
0<"
0="
0>"
0?"
0@"
1A"
0B"
1C"
1D"
0E"
0F"
0G"
1H"
1I"
0J"
1K"
0L"
0M"
0N"
0O"
0P"
0Q"
1R"
1S"
0T"
1U"
0V"
0W"
0X"
0Y"
0Z"
0["
1\"
1]"
0^"
1_"
0`"
1a"
1b"
0c"
0d"
0e"
1f"
1g"
0h"
1i"
0j"
1k"
1l"
0m"
0n"
0o"
1p"
1q"
0r"
$end
#10000
1!
10!
11!
0G
1r"
1m"
1h"
1c"
1^"
1T"
1J"
1E"
1;"
1""
1v!
1l!
1g!
1]!
1X!
1N!
1o"
1j"
1e"
1`"
1["
1Q"
1G"
1B"
18"
1}!
1s!
1i!
1d!
1Z!
1U!
1K!
1/!
1.!
1-!
1,!
1+!
1)!
1'!
1&!
1$!
1}
1{
1y
1x
1v
1u
1s
1'
1(
1)
1*
1+
1-
1/
10
12
17
19
1;
1<
1>
1?
1A
1m
1l
1k
1j
1i
1g
1e
1d
1b
1]
1[
1Y
1X
1V
1U
1S
#20000
b11111010110100001010110110101000 #
0%
1$
0!
1B!
02!
13!
00!
01!
1G
#30000
1!
10!
11!
0G
1?!
1>!
1@!
0<!
1p
1D
1A!
1P
#40000
b11111010110100001010110110111000 #
b11111010110100001010110110110000 #
0!
0B!
1G!
00!
01!
1G
#50000
1!
10!
11!
0G
1D!
0?!
1C!
0E!
0A!
0>!
0@!
1<!
1q
0p
1C
0D
1F!
1E!
1A!
1Q
0P
0F!
#60000
1%
0$
b11111010110100001010110110111000 #
0!
12!
03!
1B!
00!
01!
1G
1H!
#70000
1!
10!
11!
0G
1I!
1F!
1r
1B
1R
#80000
1"
b11111010110100001010110111111000 #
b11111010110100001010110111011000 #
b11111010110100001010110111001000 #
0%
b11111010110100001010110111000000 #
0!
16!
0B!
0G!
0L!
1Q!
02!
00!
17!
01!
1G
0D!
0I!
0N!
0X!
0]!
0g!
0l!
0v!
0""
0;"
0E"
0J"
0T"
0^"
0c"
0h"
0m"
0r"
0C!
0A!
0H!
0F!
0M!
0K!
0W!
0U!
0\!
0Z!
0f!
0d!
0k!
0i!
0u!
0s!
0!"
0}!
0:"
08"
0D"
0B"
0I"
0G"
0S"
0Q"
0]"
0["
0b"
0`"
0g"
0e"
0l"
0j"
0q"
0o"
0q
0r
0s
0u
0v
0x
0y
0{
0}
0$!
0&!
0'!
0)!
0+!
0,!
0-!
0.!
0/!
0C
0B
0A
0?
0>
0<
0;
09
07
02
00
0/
0-
0+
0*
0)
0(
0'
0Q
0R
0S
0U
0V
0X
0Y
0[
0]
0b
0d
0e
0g
0i
0j
0k
0l
0m
#90000
1!
10!
11!
0G
#100000
0"
b11111010110100001010110111001000 #
0!
06!
1B!
00!
07!
01!
1G
#110000
1!
10!
11!
0G
#120000
1$
b11111010110100001010110111011000 #
b11111010110100001010110111010000 #
0!
13!
0B!
1G!
00!
01!
1G
#130000
1!
10!
11!
0G
1?!
1>!
1@!
0<!
1p
1D
1A!
1P
#140000
0$
b11111010110100001010110111011000 #
0!
03!
1B!
00!
01!
1G
#150000
1!
10!
11!
0G
#160000
b11111010110100001010110111111000 #
1%
b11111010110100001010110111101000 #
1$
b11111010110100001010110111100000 #
0!
0B!
0G!
1L!
12!
13!
00!
01!
1G
1M!
1q"
1l"
1g"
1b"
1]"
1S"
1I"
1D"
1:"
1!"
1u!
1k!
1f!
1\!
1W!
1R!
0>!
#170000
1!
10!
11!
0G
1D!
0?!
0E!
0A!
0@!
1<!
1q
0p
1C
0D
1F!
1E!
1A!
1Q
0P
0F!
#180000
0%
0$
b11111010110100001010110111101000 #
0!
02!
03!
1B!
00!
01!
1G
0q"
0l"
0g"
0b"
0]"
0S"
0I"
0D"
0:"
0!"
0u!
0k!
0f!
0\!
0W!
0R!
0M!
1C!
#190000
1!
10!
11!
0G
