lab3/simulation/qsim/lab3.msim.vcd
$comment
	File created using the following command:
		vcd file lab3.msim.vcd -direction
$end
$date
	Wed Feb  7 09:54:58 2018
$end
$version
	ModelSim Version 10.1e
$end
$timescale
	1ps
$end
$scope module alu_vlg_vec_tst $end
$var reg 32 ! a [31:0] $end
$var reg 32 " b [31:0] $end
$var reg 3 # op [2:0] $end
$var wire 1 $ cout $end
$var wire 1 % result [31] $end
$var wire 1 & result [30] $end
$var wire 1 ' result [29] $end
$var wire 1 ( result [28] $end
$var wire 1 ) result [27] $end
$var wire 1 * result [26] $end
$var wire 1 + result [25] $end
$var wire 1 , result [24] $end
$var wire 1 - result [23] $end
$var wire 1 . result [22] $end
$var wire 1 / result [21] $end
$var wire 1 0 result [20] $end
$var wire 1 1 result [19] $end
$var wire 1 2 result [18] $end
$var wire 1 3 result [17] $end
$var wire 1 4 result [16] $end
$var wire 1 5 result [15] $end
$var wire 1 6 result [14] $end
$var wire 1 7 result [13] $end
$var wire 1 8 result [12] $end
$var wire 1 9 result [11] $end
$var wire 1 : result [10] $end
$var wire 1 ; result [9] $end
$var wire 1 < result [8] $end
$var wire 1 = result [7] $end
$var wire 1 > result [6] $end
$var wire 1 ? result [5] $end
$var wire 1 @ result [4] $end
$var wire 1 A result [3] $end
$var wire 1 B result [2] $end
$var wire 1 C result [1] $end
$var wire 1 D result [0] $end
$var wire 1 E zero $end
$var wire 1 F sampler $end
$scope module i1 $end
$var wire 1 G gnd $end
$var wire 1 H vcc $end
$var wire 1 I unknown $end
$var tri1 1 J devclrn $end
$var tri1 1 K devpor $end
$var tri1 1 L devoe $end
$var wire 1 M result[0]~output_o $end
$var wire 1 N result[1]~output_o $end
$var wire 1 O result[2]~output_o $end
$var wire 1 P result[3]~output_o $end
$var wire 1 Q result[4]~output_o $end
$var wire 1 R result[5]~output_o $end
$var wire 1 S result[6]~output_o $end
$var wire 1 T result[7]~output_o $end
$var wire 1 U result[8]~output_o $end
$var wire 1 V result[9]~output_o $end
$var wire 1 W result[10]~output_o $end
$var wire 1 X result[11]~output_o $end
$var wire 1 Y result[12]~output_o $end
$var wire 1 Z result[13]~output_o $end
$var wire 1 [ result[14]~output_o $end
$var wire 1 \ result[15]~output_o $end
$var wire 1 ] result[16]~output_o $end
$var wire 1 ^ result[17]~output_o $end
$var wire 1 _ result[18]~output_o $end
$var wire 1 ` result[19]~output_o $end
$var wire 1 a result[20]~output_o $end
$var wire 1 b result[21]~output_o $end
$var wire 1 c result[22]~output_o $end
$var wire 1 d result[23]~output_o $end
$var wire 1 e result[24]~output_o $end
$var wire 1 f result[25]~output_o $end
$var wire 1 g result[26]~output_o $end
$var wire 1 h result[27]~output_o $end
$var wire 1 i result[28]~output_o $end
$var wire 1 j result[29]~output_o $end
$var wire 1 k result[30]~output_o $end
$var wire 1 l result[31]~output_o $end
$var wire 1 m cout~output_o $end
$var wire 1 n zero~output_o $end
$var wire 1 o op[0]~input_o $end
$var wire 1 p b[0]~input_o $end
$var wire 1 q a[0]~input_o $end
$var wire 1 r op[2]~input_o $end
$var wire 1 s mux1|Mux0~0_combout $end
$var wire 1 t a[1]~input_o $end
$var wire 1 u mux1|Mux0~1_combout $end
$var wire 1 v op[1]~input_o $end
$var wire 1 w mux1|Mux0~2_combout $end
$var wire 1 x mux1|Mux32~0_combout $end
$var wire 1 y b[1]~input_o $end
$var wire 1 z adder1|s1|p1|cout~0_combout $end
$var wire 1 { adder1|s1|p2|s~combout $end
$var wire 1 | a[2]~input_o $end
$var wire 1 } mux1|Mux1~0_combout $end
$var wire 1 ~ mux1|Mux1~1_combout $end
$var wire 1 !! mux1|Mux1~2_combout $end
$var wire 1 "! b[2]~input_o $end
$var wire 1 #! a[3]~input_o $end
$var wire 1 $! mux1|Mux2~0_combout $end
$var wire 1 %! mux1|Mux2~1_combout $end
$var wire 1 &! adder1|s1|p2|cout~0_combout $end
$var wire 1 '! adder1|s1|p3|s~0_combout $end
$var wire 1 (! mux1|Mux2~2_combout $end
$var wire 1 )! a[4]~input_o $end
$var wire 1 *! mux1|Mux3~0_combout $end
$var wire 1 +! adder1|s1|p3|cout~0_combout $end
$var wire 1 ,! b[3]~input_o $end
$var wire 1 -! mux1|Mux3~1_combout $end
$var wire 1 .! mux1|Mux3~2_combout $end
$var wire 1 /! mux1|Mux3~3_combout $end
$var wire 1 0! a[5]~input_o $end
$var wire 1 1! mux1|Mux4~0_combout $end
$var wire 1 2! b[4]~input_o $end
$var wire 1 3! mux1|Mux4~1_combout $end
$var wire 1 4! adder1|s1|p4|cout~0_combout $end
$var wire 1 5! mux1|Mux4~2_combout $end
$var wire 1 6! mux1|Mux4~3_combout $end
$var wire 1 7! b[5]~input_o $end
$var wire 1 8! mux1|Mux5~1_combout $end
$var wire 1 9! adder1|s2|p1|cout~0_combout $end
$var wire 1 :! mux1|Mux5~2_combout $end
$var wire 1 ;! a[6]~input_o $end
$var wire 1 <! mux1|Mux5~0_combout $end
$var wire 1 =! mux1|Mux5~3_combout $end
$var wire 1 >! a[7]~input_o $end
$var wire 1 ?! mux1|Mux6~0_combout $end
$var wire 1 @! b[6]~input_o $end
$var wire 1 A! mux1|Mux6~1_combout $end
$var wire 1 B! adder1|s2|p2|cout~0_combout $end
$var wire 1 C! mux1|Mux6~2_combout $end
$var wire 1 D! mux1|Mux6~3_combout $end
$var wire 1 E! a[8]~input_o $end
$var wire 1 F! mux1|Mux7~0_combout $end
$var wire 1 G! b[7]~input_o $end
$var wire 1 H! mux1|Mux7~1_combout $end
$var wire 1 I! adder1|s2|p3|cout~0_combout $end
$var wire 1 J! mux1|Mux7~2_combout $end
$var wire 1 K! mux1|Mux7~3_combout $end
$var wire 1 L! a[9]~input_o $end
$var wire 1 M! mux1|Mux8~0_combout $end
$var wire 1 N! adder1|s2|p4|cout~0_combout $end
$var wire 1 O! b[8]~input_o $end
$var wire 1 P! mux1|Mux8~1_combout $end
$var wire 1 Q! mux1|Mux8~2_combout $end
$var wire 1 R! mux1|Mux8~3_combout $end
$var wire 1 S! b[9]~input_o $end
$var wire 1 T! mux1|Mux9~1_combout $end
$var wire 1 U! adder1|s3|p1|cout~0_combout $end
$var wire 1 V! mux1|Mux9~2_combout $end
$var wire 1 W! a[10]~input_o $end
$var wire 1 X! mux1|Mux9~0_combout $end
$var wire 1 Y! mux1|Mux9~3_combout $end
$var wire 1 Z! a[11]~input_o $end
$var wire 1 [! mux1|Mux10~0_combout $end
$var wire 1 \! b[10]~input_o $end
$var wire 1 ]! mux1|Mux10~1_combout $end
$var wire 1 ^! adder1|s3|p2|cout~0_combout $end
$var wire 1 _! mux1|Mux10~2_combout $end
$var wire 1 `! mux1|Mux10~3_combout $end
$var wire 1 a! a[12]~input_o $end
$var wire 1 b! mux1|Mux11~0_combout $end
$var wire 1 c! b[11]~input_o $end
$var wire 1 d! mux1|Mux11~1_combout $end
$var wire 1 e! adder1|s3|p3|cout~0_combout $end
$var wire 1 f! mux1|Mux11~2_combout $end
$var wire 1 g! mux1|Mux11~3_combout $end
$var wire 1 h! a[13]~input_o $end
$var wire 1 i! mux1|Mux12~0_combout $end
$var wire 1 j! b[12]~input_o $end
$var wire 1 k! mux1|Mux12~1_combout $end
$var wire 1 l! adder1|s3|p4|cout~0_combout $end
$var wire 1 m! mux1|Mux12~2_combout $end
$var wire 1 n! mux1|Mux12~3_combout $end
$var wire 1 o! b[13]~input_o $end
$var wire 1 p! mux1|Mux13~1_combout $end
$var wire 1 q! adder1|s4|p1|cout~0_combout $end
$var wire 1 r! mux1|Mux13~2_combout $end
$var wire 1 s! a[14]~input_o $end
$var wire 1 t! mux1|Mux13~0_combout $end
$var wire 1 u! mux1|Mux13~3_combout $end
$var wire 1 v! b[14]~input_o $end
$var wire 1 w! mux1|Mux14~1_combout $end
$var wire 1 x! adder1|s4|p2|cout~0_combout $end
$var wire 1 y! mux1|Mux14~2_combout $end
$var wire 1 z! a[15]~input_o $end
$var wire 1 {! mux1|Mux14~0_combout $end
$var wire 1 |! mux1|Mux14~3_combout $end
$var wire 1 }! a[16]~input_o $end
$var wire 1 ~! mux1|Mux15~0_combout $end
$var wire 1 !" adder1|s4|p3|cout~0_combout $end
$var wire 1 "" b[15]~input_o $end
$var wire 1 #" mux1|Mux15~1_combout $end
$var wire 1 $" mux1|Mux15~2_combout $end
$var wire 1 %" mux1|Mux15~3_combout $end
$var wire 1 &" b[16]~input_o $end
$var wire 1 '" mux1|Mux16~1_combout $end
$var wire 1 (" adder1|s4|p4|cout~0_combout $end
$var wire 1 )" mux1|Mux16~2_combout $end
$var wire 1 *" a[17]~input_o $end
$var wire 1 +" mux1|Mux16~0_combout $end
$var wire 1 ," mux1|Mux16~3_combout $end
$var wire 1 -" b[17]~input_o $end
$var wire 1 ." mux1|Mux17~1_combout $end
$var wire 1 /" adder1|s5|p1|cout~0_combout $end
$var wire 1 0" mux1|Mux17~2_combout $end
$var wire 1 1" a[18]~input_o $end
$var wire 1 2" mux1|Mux17~0_combout $end
$var wire 1 3" mux1|Mux17~3_combout $end
$var wire 1 4" a[19]~input_o $end
$var wire 1 5" mux1|Mux18~0_combout $end
$var wire 1 6" adder1|s5|p2|cout~0_combout $end
$var wire 1 7" b[18]~input_o $end
$var wire 1 8" mux1|Mux18~1_combout $end
$var wire 1 9" mux1|Mux18~2_combout $end
$var wire 1 :" mux1|Mux18~3_combout $end
$var wire 1 ;" a[20]~input_o $end
$var wire 1 <" mux1|Mux19~0_combout $end
$var wire 1 =" adder1|s5|p3|cout~0_combout $end
$var wire 1 >" b[19]~input_o $end
$var wire 1 ?" mux1|Mux19~1_combout $end
$var wire 1 @" mux1|Mux19~2_combout $end
$var wire 1 A" mux1|Mux19~3_combout $end
$var wire 1 B" adder1|s5|p4|cout~0_combout $end
$var wire 1 C" b[20]~input_o $end
$var wire 1 D" mux1|Mux20~1_combout $end
$var wire 1 E" mux1|Mux20~2_combout $end
$var wire 1 F" a[21]~input_o $end
$var wire 1 G" mux1|Mux20~0_combout $end
$var wire 1 H" mux1|Mux20~3_combout $end
$var wire 1 I" a[22]~input_o $end
$var wire 1 J" mux1|Mux21~0_combout $end
$var wire 1 K" b[21]~input_o $end
$var wire 1 L" mux1|Mux21~1_combout $end
$var wire 1 M" adder1|s6|p1|cout~0_combout $end
$var wire 1 N" mux1|Mux21~2_combout $end
$var wire 1 O" mux1|Mux21~3_combout $end
$var wire 1 P" b[22]~input_o $end
$var wire 1 Q" mux1|Mux22~1_combout $end
$var wire 1 R" adder1|s6|p2|cout~0_combout $end
$var wire 1 S" mux1|Mux22~2_combout $end
$var wire 1 T" a[23]~input_o $end
$var wire 1 U" mux1|Mux22~0_combout $end
$var wire 1 V" mux1|Mux22~3_combout $end
$var wire 1 W" a[24]~input_o $end
$var wire 1 X" mux1|Mux23~0_combout $end
$var wire 1 Y" b[23]~input_o $end
$var wire 1 Z" mux1|Mux23~1_combout $end
$var wire 1 [" adder1|s6|p3|cout~0_combout $end
$var wire 1 \" mux1|Mux23~2_combout $end
$var wire 1 ]" mux1|Mux23~3_combout $end
$var wire 1 ^" adder1|s6|p4|cout~0_combout $end
$var wire 1 _" b[24]~input_o $end
$var wire 1 `" mux1|Mux24~1_combout $end
$var wire 1 a" mux1|Mux24~2_combout $end
$var wire 1 b" a[25]~input_o $end
$var wire 1 c" mux1|Mux24~0_combout $end
$var wire 1 d" mux1|Mux24~3_combout $end
$var wire 1 e" b[25]~input_o $end
$var wire 1 f" mux1|Mux25~1_combout $end
$var wire 1 g" adder1|s7|p1|cout~0_combout $end
$var wire 1 h" mux1|Mux25~2_combout $end
$var wire 1 i" a[26]~input_o $end
$var wire 1 j" mux1|Mux25~0_combout $end
$var wire 1 k" mux1|Mux25~3_combout $end
$var wire 1 l" a[27]~input_o $end
$var wire 1 m" mux1|Mux26~0_combout $end
$var wire 1 n" adder1|s7|p2|cout~0_combout $end
$var wire 1 o" b[26]~input_o $end
$var wire 1 p" mux1|Mux26~1_combout $end
$var wire 1 q" mux1|Mux26~2_combout $end
$var wire 1 r" mux1|Mux26~3_combout $end
$var wire 1 s" b[27]~input_o $end
$var wire 1 t" mux1|Mux27~1_combout $end
$var wire 1 u" adder1|s7|p3|cout~0_combout $end
$var wire 1 v" mux1|Mux27~2_combout $end
$var wire 1 w" a[28]~input_o $end
$var wire 1 x" mux1|Mux27~0_combout $end
$var wire 1 y" mux1|Mux27~3_combout $end
$var wire 1 z" b[28]~input_o $end
$var wire 1 {" mux1|Mux28~1_combout $end
$var wire 1 |" adder1|s7|p4|cout~0_combout $end
$var wire 1 }" mux1|Mux28~2_combout $end
$var wire 1 ~" a[29]~input_o $end
$var wire 1 !# mux1|Mux28~0_combout $end
$var wire 1 "# mux1|Mux28~3_combout $end
$var wire 1 ## b[29]~input_o $end
$var wire 1 $# mux1|Mux29~1_combout $end
$var wire 1 %# adder1|s8|p1|cout~0_combout $end
$var wire 1 &# mux1|Mux29~2_combout $end
$var wire 1 '# a[30]~input_o $end
$var wire 1 (# mux1|Mux29~0_combout $end
$var wire 1 )# mux1|Mux29~3_combout $end
$var wire 1 *# b[30]~input_o $end
$var wire 1 +# mux1|Mux30~1_combout $end
$var wire 1 ,# adder1|s8|p2|cout~0_combout $end
$var wire 1 -# mux1|Mux30~2_combout $end
$var wire 1 .# a[31]~input_o $end
$var wire 1 /# mux1|Mux30~0_combout $end
$var wire 1 0# mux1|Mux30~3_combout $end
$var wire 1 1# b[31]~input_o $end
$var wire 1 2# mux1|Mux31~0_combout $end
$var wire 1 3# adder1|s8|p3|cout~0_combout $end
$var wire 1 4# adder1|s8|p4|s~0_combout $end
$var wire 1 5# mux1|Mux31~1_combout $end
$var wire 1 6# mux1|Mux31~2_combout $end
$var wire 1 7# adder1|s8|p4|cout~0_combout $end
$var wire 1 8# Equal0~4_combout $end
$var wire 1 9# Equal0~9_combout $end
$var wire 1 :# Equal0~6_combout $end
$var wire 1 ;# Equal0~7_combout $end
$var wire 1 <# Equal0~8_combout $end
$var wire 1 =# Equal0~10_combout $end
$var wire 1 ># Equal0~5_combout $end
$var wire 1 ?# Equal0~1_combout $end
$var wire 1 @# Equal0~2_combout $end
$var wire 1 A# Equal0~0_combout $end
$var wire 1 B# Equal0~3_combout $end
$var wire 1 C# Equal0~11_combout $end
$upscope $end
$upscope $end
$enddefinitions $end
#0
$dumpvars
b1000000000000000000000000000000 !
b11111111111111111111111111111110 "
b0 #
x$
xD
xC
xB
xA
x@
x?
x>
x=
x<
x;
x:
x9
x8
x7
x6
x5
x4
x3
x2
x1
x0
x/
x.
x-
x,
x+
x*
x)
x(
x'
x&
x%
xE
xF
0G
1H
xI
1J
1K
1L
xM
xN
xO
xP
xQ
xR
xS
xT
xU
xV
xW
xX
xY
xZ
x[
x\
x]
x^
x_
x`
xa
xb
xc
xd
xe
xf
xg
xh
xi
xj
xk
xl
xm
xn
0o
0p
0q
0r
xs
0t
xu
0v
xw
xx
1y
xz
x{
0|
x}
x~
x!!
1"!
0#!
x$!
x%!
x&!
x'!
x(!
0)!
x*!
x+!
1,!
x-!
x.!
x/!
00!
x1!
12!
x3!
x4!
x5!
x6!
17!
x8!
x9!
x:!
0;!
x<!
x=!
0>!
x?!
1@!
xA!
xB!
xC!
xD!
0E!
xF!
1G!
xH!
xI!
xJ!
xK!
0L!
xM!
xN!
1O!
xP!
xQ!
xR!
1S!
xT!
xU!
xV!
0W!
xX!
xY!
0Z!
x[!
1\!
x]!
x^!
x_!
x`!
0a!
xb!
1c!
xd!
xe!
xf!
xg!
0h!
xi!
1j!
xk!
xl!
xm!
xn!
1o!
xp!
xq!
xr!
0s!
xt!
xu!
1v!
xw!
xx!
xy!
0z!
x{!
x|!
0}!
x~!
x!"
1""
x#"
x$"
x%"
1&"
x'"
x("
x)"
0*"
x+"
x,"
1-"
x."
x/"
x0"
01"
x2"
x3"
04"
x5"
x6"
17"
x8"
x9"
x:"
0;"
x<"
x="
1>"
x?"
x@"
xA"
xB"
1C"
xD"
xE"
0F"
xG"
xH"
0I"
xJ"
1K"
xL"
xM"
xN"
xO"
1P"
xQ"
xR"
xS"
0T"
xU"
xV"
0W"
xX"
1Y"
xZ"
x["
x\"
x]"
x^"
1_"
x`"
xa"
0b"
xc"
xd"
1e"
xf"
xg"
xh"
0i"
xj"
xk"
0l"
xm"
xn"
1o"
xp"
xq"
xr"
1s"
xt"
xu"
xv"
0w"
xx"
xy"
1z"
x{"
x|"
x}"
0~"
x!#
x"#
1##
x$#
x%#
x&#
1'#
x(#
x)#
1*#
x+#
x,#
x-#
0.#
x/#
x0#
11#
x2#
x3#
x4#
x5#
x6#
x7#
x8#
x9#
x:#
x;#
x<#
x=#
x>#
x?#
x@#
xA#
xB#
xC#
$end
#2838
zP
zA
#2848
zY
z[
zh
zk
z8
z6
z)
z&
#2858
zM
zO
z^
zl
zD
zB
z3
z%
#2868
zc
z.
#2878
zN
zQ
zW
z\
zC
z@
z:
z5
#2888
zZ
z]
zi
z7
z4
z(
#2898
zR
zX
za
zd
zj
z?
z9
z0
z-
z'
#2908
zS
z_
z`
ze
zf
zg
z>
z2
z1
z,
z+
z*
#2918
zT
zU
zb
z=
z<
z/
#3027
05#
#3599
0}
#3601
0$!
#3702
1+#
#3711
0j"
#3766
0/#
#3816
0$#
#3992
13#
#4008
0J"
#4038
0X"
#4098
0i!
#4100
0{!
#4187
0(#
#4220
0t!
02"
#4221
0~!
#4232
0s
#4235
0z
#4239
02#
#4272
zV
z;
#4300
0<"
#4321
1x
#4326
0<!
#4331
0~
#4335
0U"
#4340
0M!
#4359
1-#
#4363
0G"
#4365
0X!
#4422
0f"
0t"
#4439
0!#
#4447
0%!
#4481
0x"
#4486
04#
#4491
17#
#4495
0b!
#4523
03!
#4524
0m"
#4526
0&#
#4556
0[!
#4568
0+"
#4582
0w!
#4585
0'"
#4589
0k!
#4592
0p!
#4613
0&!
#4628
0{"
#4631
1{
#4705
0*!
#4714
0Z"
#4723
0`"
#4731
08"
#4764
0p"
#4771
0c"
#4772
0?"
#4775
08!
#4778
0H!
#4786
05"
#4808
0."
#4820
0?!
#4821
01!
#4827
0d!
#4857
0T!
0]!
#4858
0#"
#4873
0F!
#4931
0u
#4948
06#
#5001
0-!
#5011
0Q"
#5014
0D"
#5017
10#
#5041
0!!
05!
#5060
0L"
#5082
0P!
#5095
0a"
#5102
09"
#5121
0v"
#5129
0A!
#5130
0h"
#5134
0q"
#5143
0@"
#5149
0}"
#5160
0(!
#5175
1?#
#5228
0$"
#5280
0y!
#5289
0m!
#5291
0)"
#5298
0r!
#5328
0+!
#5340
1'!
#5345
0f!
#5370
0.!
#5376
0_!
#5384
0E"
#5412
0\"
#5414
06!
#5471
0:"
#5478
0J!
0:!
#5503
0r"
#5511
0A"
#5521
00"
#5532
0S"
#5560
0V!
#5598
0%"
#5606
0)#
#5633
0Q!
#5636
0w
#5647
0C!
#5660
0n!
#5667
0"#
#5740
0/!
#5745
0`!
#5761
0N"
#5777
0d"
#5781
0]"
#5800
0|!
#5832
0y"
#5839
0k"
#5849
0K!
#6001
0,"
#6002
0R!
#6007
0u!
#6017
0D!
#6039
03"
#6043
1A#
#6049
0V"
#6076
0g!
#6079
0Y!
#6094
0H"
#6130
0O"
#6184
0=!
#6929
09#
#6940
04!
#7128
1:#
#7225
18#
#7252
1;#
#7321
09!
#7327
1>#
#7475
1@#
#7565
0=#
#7700
0B!
#7842
1<#
#7966
1B#
#8193
1m
1$
#8200
0C#
#8831
0N
0C
#8903
0g
0*
#9017
0I!
#9143
0h
0)
#9183
0M
0D
#9246
0i
0(
#9263
0P
0A
#9358
0l
0%
#9377
0c
0.
#9398
0N!
#9455
1k
1&
#9541
0f
0+
#9579
0O
0B
#9616
0d
0-
#9679
0X
09
#9684
0Z
07
#9834
0W
0:
#9848
0`
01
#9975
0j
0'
#10003
0\
05
#10037
0[
06
#10039
0_
02
#10072
0U!
#10095
0S
0>
#10325
0Y
08
#10437
0e
0,
#10447
0T
0=
#10558
0]
04
#10589
0R
0?
#10626
0Q
0@
#10803
0^
03
#11066
0a
00
#11151
0^!
#11157
0U
0<
#11307
0b
0/
#11378
0V
0;
#11864
0e!
#12762
0l!
#13473
0q!
#14190
0x!
#14908
0!"
#15623
0("
#16535
0/"
#17247
06"
#17258
0n
0E
#17960
0="
#19039
0B"
#19898
0M"
#20609
0R"
#21327
0["
#22309
0^"
#22840
0g"
#23557
0n"
#24613
0u"
#24995
0|"
#26625
0%#
#27338
0,#
#100000
b1 #
0F
#100659
1o
#104003
1}
#104005
1$!
#104009
12#
#104165
1(#
#104166
1$#
#104444
1T!
#104477
1A!
#104644
1~
#104646
1%!
#104649
1p"
#104668
16#
#104700
1L"
#104710
1]!
1#"
#104776
1Z"
#104782
1f"
#104784
1`"
18!
#104786
1-!
#104799
1P!
#104800
1t"
#104808
13!
#104809
1{"
#104823
1&#
#104830
1'"
#104832
18"
#104834
1."
#104836
1?"
#104838
1w!
#104839
1H!
#104842
1k!
#104843
1p!
#104866
1d!
#104872
1D"
#104874
1Q"
#104969
1C!
#105011
1q"
#105072
1$"
#105104
1V!
#105147
1.!
#105148
1a"
#105195
19"
#105199
1@"
#105203
1_!
#105234
1E"
#105300
15!
#105303
1}"
#105308
1!!
#105312
1(!
#105332
1D!
#105335
0A#
#105336
0?#
#105358
1N"
1f!
#105361
1Q!
#105368
1S"
#105373
1r"
#105432
1\"
#105434
1%"
#105444
1h"
1:!
#105456
1v"
#105487
1)"
#105493
10"
#105494
1y!
#105496
1J!
#105499
1m!
#105500
1r!
#105509
1/!
#105556
1:"
#105560
1A"
#105565
1`!
#105597
1Y!
#105664
16!
#105719
1O"
#105723
1R!
#105793
1]"
#105795
1"#
#105808
1d"
#105859
1V"
1K!
#105862
1n!
#105873
0@#
#105891
1H"
#105899
1)#
#105985
13"
#105988
1|!
#106101
1=!
#106106
1k"
#106114
1y"
#106122
1g!
#106127
0;#
#106144
1,"
#106162
1u!
#106271
0<#
#106405
08#
#106479
0B#
#106680
0:#
#106816
0>#
#108855
1g
1*
#108931
1N
1C
#109034
1l
1%
#109146
1P
1A
#109266
1c
1.
#109476
1S
1>
#109487
1i
1(
#109507
1h
1)
#109564
1\
15
#109716
1W
1:
#109737
1O
1d
1B
1-
#109821
1X
19
#109892
1f
1+
#109939
1Z
17
#110060
1`
11
#110228
1_
12
#110305
1[
16
#110395
1j
1'
#110539
1e
1,
#110566
1R
1?
#110652
1T
1=
#110655
1Y
18
#110812
1]
14
#110876
1^
13
#110905
1V
1;
#111076
1b
1/
#111097
1a
10
#111130
1U
1<
#111138
1Q
1@
#200000
b11 #
b10 #
1F
#200669
1v
#200765
0o
#204062
06#
#204218
0+#
#204364
0}
#204366
0$!
#204382
02#
#204570
0(#
#204889
0A!
#204918
0-#
#205066
0%!
#205071
0~
#205396
1A!
#205407
0C!
#205629
00#
#205777
0D!
#205888
1C!
#206251
1D!
#208367
0l
0%
#209726
0k
0&
#300000
b110 #
0F
#300689
1r
#303548
07#
#303563
14#
#303847
15#
#303889
10#
#303892
03#
#303896
0)#
#303962
0=!
#304004
0'!
#304016
1z
#304078
0k"
0]"
#304093
0,"
#304206
16#
#304214
0{
#304256
0`!
0%"
#304265
0Y!
#304270
0r"
0D!
#304275
0d"
#304280
0"#
#304281
0:"
#304283
0K!
0A"
#304285
03"
#304289
0y"
#304290
06!
#304292
0/!
#304294
0n!
#304297
0|!
#304307
0u!
#304357
0H"
#304385
1{
#304386
0(!
#304421
04#
#304497
0R!
0g!
#304542
0O"
#304552
0V"
#304709
1?#
#305091
06#
#305269
1:#
#305515
1;#
#305588
1@#
#305627
1>#
#305720
18#
#306139
1<#
#307147
0m
0$
#307600
0h
0)
#307670
0g
0*
#307780
0f
0+
#307815
0P
0A
#307859
0i
0(
#307880
0c
0.
#307913
0d
0-
#307984
0Z
07
#308096
1k
1&
#308100
0X
09
#308265
0j
0'
#308322
0\
05
#308345
0W
0:
#308348
0S
0>
#308367
0R
0?
#308534
0[
06
#308620
0`
01
#308650
0]
04
#308680
0O
0B
#308849
0_
02
#308881
0T
0=
#308935
0e
0,
#308959
0Y
08
#309049
0^
03
#309329
0a
00
#309502
0Q
0@
#309564
0V
0;
#309652
0U
0<
#309719
0b
0/
#400000
b100 #
1F
#400775
0v
#404444
00#
#404449
16#
#404591
0$#
#404608
1A#
#404610
1+#
0!!
#405197
0f"
0t"
#405204
0{"
#405267
1-#
#405298
03!
#405301
0&#
#405303
0-!
#405357
0w!
#405360
0'"
#405364
0k!
#405365
0."
#405367
0p!
#405444
08!
#405489
0Z"
#405498
0`"
#405506
08"
#405539
0p"
#405547
0?"
#405553
0H!
#405602
0d!
#405632
0T!
0]!
#405633
0#"
#405672
0.!
#405725
0}"
#405786
0Q"
#405789
0D"
#405816
05!
#405835
0L"
#405857
0P!
#405870
0a"
#405877
09"
#405896
0v"
#405904
0A!
#405905
0h"
#405909
0q"
#405918
0@"
#406003
0$"
#406055
0y!
#406064
0m!
#406066
0)"
#406073
0r!
#406078
00"
#406120
0f!
#406147
0:!
#406151
0_!
#406159
0E"
#406187
0\"
#406253
0J!
#406263
19#
#406307
0S"
#406335
0V!
#406408
0Q!
#406422
0C!
#406536
0N"
#406853
1=#
#408134
0N
0C
#408541
0k
0&
#408815
1l
1%
#500000
b101 #
0F
#500659
1o
#504006
05#
#504165
1(#
#504166
1$#
#504373
06#
#504444
1T!
#504477
1A!
#504527
1)#
#504649
1p"
#504700
1L"
#504710
1]!
1#"
#504776
1Z"
#504782
1f"
#504784
1`"
18!
#504786
1-!
#504799
1P!
#504800
1t"
#504808
13!
#504809
1{"
#504823
1&#
#504830
1'"
#504832
18"
#504834
1."
#504836
1?"
#504838
1w!
#504839
1H!
#504842
1k!
#504843
1p!
#504866
1d!
#504872
1D"
#504874
1Q"
#504969
1C!
#505011
1q"
#505072
1$"
#505104
1V!
#505147
1.!
#505148
1a"
#505195
19"
#505199
1@"
#505203
1_!
#505234
1E"
#505300
15!
#505303
1}"
#505358
1N"
1f!
#505361
1Q!
#505368
1S"
#505432
1\"
#505444
1h"
1:!
#505456
1v"
#505487
1)"
#505493
10"
#505494
1y!
#505496
1J!
#505499
1m!
#505500
1r!
#506113
1B#
#506166
09#
#506475
1C#
#506802
0=#
#507437
0C#
#508678
0l
0%
#509023
1j
1'
