lab1/simulation/qsim/light.msim.vcd
$comment
	File created using the following command:
		vcd file light.msim.vcd -direction
$end
$date
	Wed Jan 17 09:25:57 2018
$end
$version
	ModelSim Version 10.1e
$end
$timescale
	1ps
$end
$scope module light_vlg_vec_tst $end
$var reg 1 ! x1 $end
$var reg 1 " x2 $end
$var wire 1 # f $end
$var wire 1 $ sampler $end
$scope module i1 $end
$var wire 1 % gnd $end
$var wire 1 & vcc $end
$var wire 1 ' unknown $end
$var tri1 1 ( devclrn $end
$var tri1 1 ) devpor $end
$var tri1 1 * devoe $end
$var wire 1 + f~output_o $end
$var wire 1 , x2~input_o $end
$var wire 1 - x1~input_o $end
$var wire 1 . f~0_combout $end
$upscope $end
$upscope $end
$enddefinitions $end
#0
$dumpvars
0!
0"
x#
x$
0%
1&
x'
1(
1)
1*
x+
0,
0-
x.
$end
#3780
0.
#11766
0+
0#
#50000
1"
0$
#50700
1,
#54203
1.
#62369
1+
1#
#100000
1!
0"
1$
#100700
1-
#100806
0,
#103604
0.
#104579
1.
#150000
1"
0$
#150700
1,
#154210
0.
#162196
0+
0#
